{
  "general": {
    "debug": true,
    "verify_ssl": true,
    "backup_dir": "_OUTPUT_"
  },
  "grafana": {
    "url": "https://grafana",
    "token": "eyJrIjoicVdYbElGMmp1OVpXeXBJdHNXRVNPaEdhazhUSkZFT3EiLCJuIjoiZ3JhZmFuYS1iYWNrdXAiLCJpZCI6MX0=",
    "search_api_limit": 5000,
    "default_password": "00000000",
    "admin_account": "admin",
    "admin_password": "admin"
  },
  "aws": {
    "s3_bucket_name": "grafana-backup",
    "s3_bucket_key": "",
    "default_region": "eu-central-1",
    "access_key_id": "AKIAZ43ZC5ZLPCKOQOWB",
    "secret_access_key": "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"
  }
}
